2.3 Data Filtering | Proteomic Data Analysis
…
In R, the order of operations doesn’t work like English. You can’t write:

filter(mpg, year == 1999 | 2000)

Even though in your head you might say “finds all cars made in 1999 or 2000”, R does not understand multiple comparisons in the same way. Be sure to write out a complete test on each side of a Boolean operator. To fix the above example, we would enter the following:

filter(mpg, year == 1999 | year == 2000)

2.3.1.1.1 Helpful Tips with Logic Tests and Boolean Operators

A useful short-hand for the above problem is x %in% y. This will select every row where x is one of the values in y. We could use it to rewrite the code in the question above:

filter(mpg, year %in% c(1999, 2000))

## # A tibble: 117 × 11
##    manufacturer model      displ  year   cyl trans drv     cty   hwy fl    class
##    <chr>        <chr>      <dbl> <int> <int> <chr> <chr> <int> <int> <chr> <chr>
##  1 audi         a4           1.8  1999     4 auto… f        18    29 p     comp…
##  2 audi         a4           1.8  1999     4 manu… f        21    29 p     comp…
##  3 audi         a4           2.8  1999     6 auto… f        16    26 p     comp…
##  4 audi         a4           2.8  1999     6 manu… f        18    26 p     comp…
##  5 audi         a4 quattro   1.8  1999     4 manu… 4        18    26 p     comp…
##  6 audi         a4 quattro   1.8  1999     4 auto… 4        16    25 p     comp…
##  7 audi         a4 quattro   2.8  1999     6 auto… 4        15    25 p     comp…
##  8 audi         a4 quattro   2.8  1999     6 manu… 4        17    25 p     comp…
##  9 audi         a6 quattro   2.8  1999     6 auto… 4        15    24 p     mids…
## 10 chevrolet    c1500 sub…   5.7  1999     8 auto… r        13    17 r     suv  
## # ℹ 107 more rows

Sometimes you can simplify complicated sub-setting by remembering De Morgan’s law:

!(x & y) is the same as !x | !y

!(x | y) is the same as !x & !y

For example, if you wanted to find cars with less than 6 cylinders and had engines less than 2 liters, you could use either of the following two filters:

filter(mpg, !(cyl > 6 | displ >= 2))

## # A tibble: 22 × 11
##    manufacturer model      displ  year   cyl trans drv     cty   hwy fl    class
##    <chr>        <chr>      <dbl> <int> <int> <chr> <chr> <int> <int> <chr> <chr>
##  1 audi         a4           1.8  1999     4 auto… f        18    29 p     comp…
##  2 audi         a4           1.8  1999     4 manu… f        21    29 p     comp…
##  3 audi         a4 quattro   1.8  1999     4 manu… 4        18    26 p     comp…
##  4 audi         a4 quattro   1.8  1999     4 auto… 4        16    25 p     comp…
##  5 honda        civic        1.6  1999     4 manu… f        28    33 r     subc…
##  6 honda        civic        1.6  1999     4 auto… f        24    32 r     subc…
##  7 honda        civic        1.6  1999     4 manu… f        25    32 r     subc…
##  8 honda        civic        1.6  1999     4 manu… f        23    29 p     subc…
##  9 honda        civic        1.6  1999     4 auto… f        24    32 r     subc…
## 10 honda        civic        1.8  2008     4 manu… f        26    34 r     subc…
## # ℹ 12 more rows

filter(mpg, cyl < 6, displ < 2)

## # A tibble: 22 × 11
##    manufacturer model      displ  year   cyl trans drv     cty   hwy fl    class
##    <chr>        <chr>      <dbl> <int> <int> <chr> <chr> <int> <int> <chr> <chr>
##  1 audi         a4           1.8  1999     4 auto… f        18    29 p     comp…
##  2 audi         a4           1.8  1999     4 manu… f        21    29 p     comp…
##  3 audi         a4 quattro   1.8  1999     4 manu… 4        18    26 p     comp…
##  4 audi         a4 quattro   1.8  1999     4 auto… 4        16    25 p     comp…
##  5 honda        civic        1.6  1999     4 manu… f        28    33 r     subc…
##  6 honda        civic        1.6  1999     4 auto… f        24    32 r     subc…
##  7 honda        civic        1.6  1999     4 manu… f        25    32 r     subc…
##  8 honda        civic        1.6  1999     4 manu… f        23    29 p     subc…
##  9 honda        civic        1.6  1999     4 auto… f        24    32 r     subc…
## 10 honda        civic        1.8  2008     4 manu… f        26    34 r     subc…
## # ℹ 12 more rows
…
