4.2 Prepare the t-test | Proteomic Data Analysis
…
ttest_data_prep

## # A tibble: 170,184 × 8
##    Run    group   rep Protein.Group PG.MaxLFQ n_detect n_replicates comparison  
##    <chr>  <chr> <int> <chr>             <dbl>    <int>        <int> <chr>       
##  1 bisC_1 bisC      1 O52982             19.3        3            3 WT_vs_bisC  
##  2 bisC_1 bisC      1 O52982             19.3        3            3 bisC_vs_msrA
##  3 bisC_1 bisC      1 O52982             19.3        3            3 bisC_vs_msrB
##  4 bisC_1 bisC      1 O52982             19.3        3            3 bisC_vs_msrC
##  5 bisC_1 bisC      1 P00350             29.8        3            3 WT_vs_bisC  
##  6 bisC_1 bisC      1 P00350             29.8        3            3 bisC_vs_msrA
##  7 bisC_1 bisC      1 P00350             29.8        3            3 bisC_vs_msrB
##  8 bisC_1 bisC      1 P00350             29.8        3            3 bisC_vs_msrC
##  9 bisC_1 bisC      1 P00363             29.2        3            3 WT_vs_bisC  
## 10 bisC_1 bisC      1 P00363             29.2        3            3 bisC_vs_msrA
## # ℹ 170,174 more rows

Now we have a data frame with all our protein expression levels alnog with which group they belong to and what comparison we want to perform.

However, for the purposes of this tutorial, we really are only interested in WT compared to each of the knockouts, so we will get rid of all the other comparisons (e.g. “msrA_vs_msrB”)

ttest_data_prep_wt_comps <- ttest_data_prep %>% 
  dplyr::filter(grepl('WT_vs', comparison))

ttest_data_prep_wt_comps

## # A tibble: 69,897 × 8
##    Run    group   rep Protein.Group PG.MaxLFQ n_detect n_replicates comparison
##    <chr>  <chr> <int> <chr>             <dbl>    <int>        <int> <chr>     
##  1 bisC_1 bisC      1 O52982             19.3        3            3 WT_vs_bisC
##  2 bisC_1 bisC      1 P00350             29.8        3            3 WT_vs_bisC
##  3 bisC_1 bisC      1 P00363             29.2        3            3 WT_vs_bisC
##  4 bisC_1 bisC      1 P00370             25.3        3            3 WT_vs_bisC
##  5 bisC_1 bisC      1 P00393             26.9        3            3 WT_vs_bisC
##  6 bisC_1 bisC      1 P00448             30.1        3            3 WT_vs_bisC
##  7 bisC_1 bisC      1 P00452             27.1        3            3 WT_vs_bisC
##  8 bisC_1 bisC      1 P00490             27.8        3            3 WT_vs_bisC
##  9 bisC_1 bisC      1 P00509             29.1        3            3 WT_vs_bisC
## 10 bisC_1 bisC      1 P00547             24.6        3            3 WT_vs_bisC
## # ℹ 69,887 more rows

Next, we need to count the number of replicates within each group.

comparison_data <- ttest_data_prep_wt_comps %>% 
  mutate(type = ifelse(group == str_extract(group, pattern = '(?<=_vs_).+'),
                       'control', 
                       'experimental')) %>% 
  arrange(factor(Protein.Group, levels = unique(str_sort(Protein.Group,
                                                         numeric = T)))) %>% 
  select(-type)

comparison_data

## # A tibble: 69,897 × 8
##    Run    group   rep Protein.Group PG.MaxLFQ n_detect n_replicates comparison
##    <chr>  <chr> <int> <chr>             <dbl>    <int>        <int> <chr>     
##  1 bisC_1 bisC      1 O52982             19.3        3            3 WT_vs_bisC
##  2 bisC_2 bisC      2 O52982             17.8        3            3 WT_vs_bisC
##  3 bisC_3 bisC      3 O52982             19.8        3            3 WT_vs_bisC
##  4 msrA_1 msrA      1 O52982             18.6        3            3 WT_vs_msrA
##  5 msrA_2 msrA      2 O52982             19.5        3            3 WT_vs_msrA
##  6 msrA_3 msrA      3 O52982             18.3        3            3 WT_vs_msrA
##  7 msrB_1 msrB      1 O52982             16.3        3            3 WT_vs_msrB
##  8 msrB_2 msrB      2 O52982             16.4        3            3 WT_vs_msrB
##  9 msrB_3 msrB      3 O52982             16.7        3            3 WT_vs_msrB
## 10 msrC_1 msrC      1 O52982             16.1        2            2 WT_vs_msrC
## # ℹ 69,887 more rows
…
