5.1 Prep Work | Proteomic Data Analysis
…
protein_description

## # A tibble: 4,063 × 5
##    Protein.Id Protein.Name     Gene  Description                        Sequence
##    <chr>      <chr>            <chr> <chr>                              <chr>   
##  1 A0A385XJ53 INSA9_ECOLI      insA9 Insertion element IS1 9 protein I… MASVSIS…
##  2 A0A385XJK5 YPAB_ECOLI       ypaB  Protein YpaB                       MTLLQVH…
##  3 A0A385XJN2 A0A385XJN2_ECOLI ygiA  Uncharacterized protein            MTTTGLR…
##  4 A0A385XK32 A0A385XK32_ECOLI yzfA  Putative YjfA                      MHMVTYP…
##  5 A5A613     YCIY_ECOLI       yciY  Uncharacterized protein YciY       MKRSRTE…
##  6 A5A614     YCIZ_ECOLI       yciZ  UPF0509 protein YciZ               MSEFDAQ…
##  7 A5A625     YIBV_ECOLI       yibV  Protein YibV                       MADKAIL…
##  8 A5A627     TISB_ECOLI       tisB  Small toxic protein TisB           MNLVDIA…
##  9 A8DYP9     LPFUR_ECOLI      uof   fur leader peptide                 MIRIISR…
## 10 C1P5Z8     YKGR_ECOLI       ykgR  Uncharacterized membrane protein … MKENKVQ…
## # ℹ 4,053 more rows
…
