3.6 Prepare Data for Differential Expression Analysis (t-test) | Proteomic Data Analysis
…
diann_peptide_filtered_data <- inner_join(x = diann_peptide_counts,
                                          y = diann_peptide_filter_list,
                                          by = c('group', 'Protein.Group', 'Genes'))

diann_peptide_filtered_data

## # A tibble: 41,702 × 6
##    Run   Protein.Group Genes n_peptides group  PG.MaxLFQ
##    <chr> <chr>         <chr>      <int> <chr>      <dbl>
##  1 WT1   O52982        yfjS           2 WT        86634.
##  2 WT1   P00350        gnd           43 WT    963161664 
##  3 WT1   P00363        frdA          63 WT    650691136 
##  4 WT1   P00370        gdhA          30 WT     40558036 
##  5 WT1   P00393        ndh           38 WT    117415024 
##  6 WT1   P00448        sodA          16 WT    464933792 
##  7 WT1   P00452        nrdA          48 WT    132433664 
##  8 WT1   P00490        malP          62 WT    201849968 
##  9 WT1   P00509        aspC          37 WT    591304576 
## 10 WT1   P00547        thrB           8 WT     36680244 
## # ℹ 41,692 more rows

We now have a data frame with a new column containing the number of peptides that were identified for each protein in each sample. And was filtered so that every protein was quantified using 2 or more peptides. AND has at least one group with at least two replicates with that protein present. So now we are a little more confident in our dataset that the proteins that are still present were at least quantified in at least one of our groups.

The last thing we need to do before imputing missing values is to make our data “wide”, which just means that instead of each run being on its own row, each row is now a single protein and each column is the protein abundance in that sample. At this point, we will now see NA if there is a missing value.

diann_peptide_filtered_wide <- diann_peptide_filtered_data %>% 
  select(-c(n_peptides, group)) %>% 
  mutate(PG.MaxLFQ = log2(PG.MaxLFQ)) %>% 
  pivot_wider(names_from = 'Run', 
              values_from = 'PG.MaxLFQ')

diann_peptide_filtered_wide

## # A tibble: 3,039 × 16
##    Protein.Group Genes   WT1   WT2   WT3 bisC1 bisC2 bisC3 msrA1 msrA2 msrA3
##    <chr>         <chr> <dbl> <dbl> <dbl> <dbl> <dbl> <dbl> <dbl> <dbl> <dbl>
##  1 O52982        yfjS   16.4  16.6  16.2  NA    NA    NA    NA    NA    NA  
##  2 P00350        gnd    29.8  29.7  29.7  29.8  29.7  29.7  29.5  29.8  29.6
##  3 P00363        frdA   29.3  29.2  29.2  29.2  29.1  29.1  29.1  29.3  29.2
##  4 P00370        gdhA   25.3  25.3  25.3  25.3  25.4  25.3  25.1  25.1  25.2
##  5 P00393        ndh    26.8  26.9  26.8  26.9  26.7  26.8  27.0  26.9  26.8
##  6 P00448        sodA   28.8  29.7  29.7  30.1  29.7  29.5  28.8  28.3  29.4
##  7 P00452        nrdA   27.0  27.0  26.9  27.1  27.0  27.0  26.7  26.8  26.9
##  8 P00490        malP   27.6  27.6  27.6  27.8  27.7  27.8  27.5  27.6  27.6
##  9 P00509        aspC   29.1  29.1  29.1  29.1  29.0  29.0  29.0  29.1  29.1
## 10 P00547        thrB   25.1  25.1  25.2  24.6  24.3  24.3  24.9  25.4  24.8
## # ℹ 3,029 more rows
## # ℹ 5 more variables: msrB1 <dbl>, msrB2 <dbl>, msrB3 <dbl>, msrC1 <dbl>,
## #   msrC3 <dbl>
…
imputed_data_df

## # A tibble: 42,546 × 6
##    Run   group Protein.Group Genes PG.MaxLFQ n_peptides
##    <chr> <chr> <chr>         <chr>     <dbl>      <int>
##  1 WT1   WT    O52982        yfjS       16.4          2
##  2 WT2   WT    O52982        yfjS       16.6          1
##  3 WT3   WT    O52982        yfjS       16.2          2
##  4 bisC1 bisC  O52982        yfjS       19.3         NA
##  5 bisC2 bisC  O52982        yfjS       17.8         NA
##  6 bisC3 bisC  O52982        yfjS       19.8         NA
##  7 msrA1 msrA  O52982        yfjS       18.6         NA
##  8 msrA2 msrA  O52982        yfjS       19.5         NA
##  9 msrA3 msrA  O52982        yfjS       18.3         NA
## 10 msrB1 msrB  O52982        yfjS       16.3          3
## # ℹ 42,536 more rows
…
