2.4 Manipulating Data Frames (Data Transformation) | Proteomic Data Analysis
…
The first argument is a data frame.

The subsequent arguments describe what to do with the data frame, using the variable names (without quotes).

The result is a new data frame.

Together these properties make it easy to chain together multiple simple steps to achieve a complex result. Let’s dive in and see how these verbs work.

2.4.1 Arrange Rows with arrange()

arrange() works similarly to filter() except instead of selecting rows, it changes their order. It takes a data frame and a set of column names (or more complicated expressions) to order by. If you provide more than one column name, each additional column will be used to break ties in the values of preceding columns:

arrange(mpg, manufacturer, model, displ, year)

## # A tibble: 234 × 11
##    manufacturer model      displ  year   cyl trans drv     cty   hwy fl    class
##    <chr>        <chr>      <dbl> <int> <int> <chr> <chr> <int> <int> <chr> <chr>
##  1 audi         a4           1.8  1999     4 auto… f        18    29 p     comp…
##  2 audi         a4           1.8  1999     4 manu… f        21    29 p     comp…
##  3 audi         a4           2    2008     4 manu… f        20    31 p     comp…
##  4 audi         a4           2    2008     4 auto… f        21    30 p     comp…
##  5 audi         a4           2.8  1999     6 auto… f        16    26 p     comp…
##  6 audi         a4           2.8  1999     6 manu… f        18    26 p     comp…
##  7 audi         a4           3.1  2008     6 auto… f        18    27 p     comp…
##  8 audi         a4 quattro   1.8  1999     4 manu… 4        18    26 p     comp…
##  9 audi         a4 quattro   1.8  1999     4 auto… 4        16    25 p     comp…
## 10 audi         a4 quattro   2    2008     4 manu… 4        20    28 p     comp…
## # ℹ 224 more rows

Use desc() to re-order by a column in descending order:

arrange(mpg, desc(manufacturer))

## # A tibble: 234 × 11
##    manufacturer model displ  year   cyl trans      drv     cty   hwy fl    class
##    <chr>        <chr> <dbl> <int> <int> <chr>      <chr> <int> <int> <chr> <chr>
##  1 volkswagen   gti     2    1999     4 manual(m5) f        21    29 r     comp…
##  2 volkswagen   gti     2    1999     4 auto(l4)   f        19    26 r     comp…
##  3 volkswagen   gti     2    2008     4 manual(m6) f        21    29 p     comp…
##  4 volkswagen   gti     2    2008     4 auto(s6)   f        22    29 p     comp…
##  5 volkswagen   gti     2.8  1999     6 manual(m5) f        17    24 r     comp…
##  6 volkswagen   jetta   1.9  1999     4 manual(m5) f        33    44 d     comp…
##  7 volkswagen   jetta   2    1999     4 manual(m5) f        21    29 r     comp…
##  8 volkswagen   jetta   2    1999     4 auto(l4)   f        19    26 r     comp…
##  9 volkswagen   jetta   2    2008     4 auto(s6)   f        22    29 p     comp…
## 10 volkswagen   jetta   2    2008     4 manual(m6) f        21    29 p     comp…
## # ℹ 224 more rows
…
## # A tibble: 3 × 1
##       x
##   <dbl>
## 1     5
## 2     2
## 3    NA

2.4.2 Select Columns with select()

It’s not uncommon to get datasets with hundreds or even thousands of variables. In this case, the first challenge is often narrowing in on the variables you’re actually interested in. select() allows you to rapidly zoom in on a useful subset using operations based on the names of the variables.

select(mpg, manufacturer, model, year)

## # A tibble: 234 × 3
##    manufacturer model       year
##    <chr>        <chr>      <int>
##  1 audi         a4          1999
##  2 audi         a4          1999
##  3 audi         a4          2008
##  4 audi         a4          2008
##  5 audi         a4          1999
##  6 audi         a4          1999
##  7 audi         a4          2008
##  8 audi         a4 quattro  1999
##  9 audi         a4 quattro  1999
## 10 audi         a4 quattro  2008
## # ℹ 224 more rows

#selects just the columns "manufacturer", "model", and "year"

select(mpg, manufacturer, model:cyl)

## # A tibble: 234 × 5
##    manufacturer model      displ  year   cyl
##    <chr>        <chr>      <dbl> <int> <int>
##  1 audi         a4           1.8  1999     4
##  2 audi         a4           1.8  1999     4
##  3 audi         a4           2    2008     4
##  4 audi         a4           2    2008     4
##  5 audi         a4           2.8  1999     6
##  6 audi         a4           2.8  1999     6
##  7 audi         a4           3.1  2008     6
##  8 audi         a4 quattro   1.8  1999     4
##  9 audi         a4 quattro   1.8  1999     4
## 10 audi         a4 quattro   2    2008     4
## # ℹ 224 more rows

#selects the column "manufacturer" and every column between "model" and "cyl" ("displ", and "year")

select(mpg, -(displ:drv))

## # A tibble: 234 × 6
##    manufacturer model        cty   hwy fl    class  
##    <chr>        <chr>      <int> <int> <chr> <chr>  
##  1 audi         a4            18    29 p     compact
##  2 audi         a4            21    29 p     compact
##  3 audi         a4            20    31 p     compact
##  4 audi         a4            21    30 p     compact
##  5 audi         a4            16    26 p     compact
##  6 audi         a4            18    26 p     compact
##  7 audi         a4            18    27 p     compact
##  8 audi         a4 quattro    18    26 p     compact
##  9 audi         a4 quattro    16    25 p     compact
## 10 audi         a4 quattro    20    28 p     compact
## # ℹ 224 more rows
…
ends_with("xyz"): matches names that end with “xyz”.

contains("ijk"): matches names that contain “ijk”.

matches("(.)\\1"): selects variables that match a regular expression. This one matches any variables that contain repeated characters.

num_range("x", 1:3): matches x1, x2 and x3.

To see a longer list of other functions and more detailed usage, use ?select for more details.

You can also use select() to rename variables, but it’s rarely useful because it drops all of the variables not explicitly mentioned. Instead, use rename(), a variant of select(), that keeps all the variables that aren’t explicitly mentioned:

rename(mpg, make = manufacturer)

## # A tibble: 234 × 11
##    make  model      displ  year   cyl trans      drv     cty   hwy fl    class  
##    <chr> <chr>      <dbl> <int> <int> <chr>      <chr> <int> <int> <chr> <chr>  
##  1 audi  a4           1.8  1999     4 auto(l5)   f        18    29 p     compact
##  2 audi  a4           1.8  1999     4 manual(m5) f        21    29 p     compact
##  3 audi  a4           2    2008     4 manual(m6) f        20    31 p     compact
##  4 audi  a4           2    2008     4 auto(av)   f        21    30 p     compact
##  5 audi  a4           2.8  1999     6 auto(l5)   f        16    26 p     compact
##  6 audi  a4           2.8  1999     6 manual(m5) f        18    26 p     compact
##  7 audi  a4           3.1  2008     6 auto(av)   f        18    27 p     compact
##  8 audi  a4 quattro   1.8  1999     4 manual(m5) 4        18    26 p     compact
##  9 audi  a4 quattro   1.8  1999     4 auto(l5)   4        16    25 p     compact
## 10 audi  a4 quattro   2    2008     4 manual(m6) 4        20    28 p     compact
## # ℹ 224 more rows

Another option is to use select() in conjunction with the everything() helper. This is useful if you have a handful of variables you’d like to move to the start of the data frame.

select(mpg, year, model, manufacturer, everything())

## # A tibble: 234 × 11
##     year model      manufacturer displ   cyl trans drv     cty   hwy fl    class
##    <int> <chr>      <chr>        <dbl> <int> <chr> <chr> <int> <int> <chr> <chr>
##  1  1999 a4         audi           1.8     4 auto… f        18    29 p     comp…
##  2  1999 a4         audi           1.8     4 manu… f        21    29 p     comp…
##  3  2008 a4         audi           2       4 manu… f        20    31 p     comp…
##  4  2008 a4         audi           2       4 auto… f        21    30 p     comp…
##  5  1999 a4         audi           2.8     6 auto… f        16    26 p     comp…
##  6  1999 a4         audi           2.8     6 manu… f        18    26 p     comp…
##  7  2008 a4         audi           3.1     6 auto… f        18    27 p     comp…
##  8  1999 a4 quattro audi           1.8     4 manu… 4        18    26 p     comp…
##  9  1999 a4 quattro audi           1.8     4 auto… 4        16    25 p     comp…
## 10  2008 a4 quattro audi           2       4 manu… 4        20    28 p     comp…
## # ℹ 224 more rows
…
#would be the same if we typed:
#mpg_small <- select(mpg, manufacturer, model, year, cty, hwy)

mutate(mpg_small,
       mileage_diff = hwy - cty,
       cty_mileage_per_ltr = cty / displ,
       hwy_mileage_per_ltr = hwy / displ)

## # A tibble: 234 × 9
##    manufacturer model   displ  year   cty   hwy mileage_diff cty_mileage_per_ltr
##    <chr>        <chr>   <dbl> <int> <int> <int>        <int>               <dbl>
##  1 audi         a4        1.8  1999    18    29           11               10   
##  2 audi         a4        1.8  1999    21    29            8               11.7 
##  3 audi         a4        2    2008    20    31           11               10   
##  4 audi         a4        2    2008    21    30            9               10.5 
##  5 audi         a4        2.8  1999    16    26           10                5.71
##  6 audi         a4        2.8  1999    18    26            8                6.43
##  7 audi         a4        3.1  2008    18    27            9                5.81
##  8 audi         a4 qua…   1.8  1999    18    26            8               10   
##  9 audi         a4 qua…   1.8  1999    16    25            9                8.89
## 10 audi         a4 qua…   2    2008    20    28            8               10   
## # ℹ 224 more rows
## # ℹ 1 more variable: hwy_mileage_per_ltr <dbl>

You can also refer to columns that you’ve just created:

mutate(mpg_small,
       mileage_diff = hwy - cty,
       mileage_diff_per_ltr = mileage_diff / displ)

## # A tibble: 234 × 8
##    manufacturer model  displ  year   cty   hwy mileage_diff mileage_diff_per_ltr
##    <chr>        <chr>  <dbl> <int> <int> <int>        <int>                <dbl>
##  1 audi         a4       1.8  1999    18    29           11                 6.11
##  2 audi         a4       1.8  1999    21    29            8                 4.44
##  3 audi         a4       2    2008    20    31           11                 5.5 
##  4 audi         a4       2    2008    21    30            9                 4.5 
##  5 audi         a4       2.8  1999    16    26           10                 3.57
##  6 audi         a4       2.8  1999    18    26            8                 2.86
##  7 audi         a4       3.1  2008    18    27            9                 2.90
##  8 audi         a4 qu…   1.8  1999    18    26            8                 4.44
##  9 audi         a4 qu…   1.8  1999    16    25            9                 5   
## 10 audi         a4 qu…   2    2008    20    28            8                 4   
## # ℹ 224 more rows

If you only want to keep the new variables (i.e., you do not want any of the old ones), you can use transmute():

transmute(mpg,
          cty_mileage_per_ltr = cty / displ,
          hwy_mileage_per_ltr = hwy / displ)

## # A tibble: 234 × 2
##    cty_mileage_per_ltr hwy_mileage_per_ltr
##                  <dbl>               <dbl>
##  1               10                  16.1 
##  2               11.7                16.1 
##  3               10                  15.5 
##  4               10.5                15   
##  5                5.71                9.29
##  6                6.43                9.29
##  7                5.81                8.71
##  8               10                  14.4 
##  9                8.89               13.9 
## 10               10                  14   
## # ℹ 224 more rows
…
These are all vectorised, using the so called “recycling rules”. If one parameter is shorter than the other, it will be automatically extended to be the same length. This is most useful when one of the arguments is a single number: displ * 3.4, cty / 1.5, etc.

Arithmetic operators are also useful in conjunction with the aggregate functions. For example, x / sum(x) calculates the proportion of a total, and y - mean(y) computes the difference from the mean.

Modular arithmetic: %/% (integer division) and %% (remainder), where x == y * (x %/% y) + (x %% y).

Modular arithmetic is a handy tool because it allows you to break integers up into pieces. For example, in the flights dataset, you can compute hour and minute from dep_time with:

transmute(mpg,
          model,
          year,
          millenium = year %/% 1000,
          century_decade_year = year %% 1000)

## # A tibble: 234 × 4
##    model       year millenium century_decade_year
##    <chr>      <int>     <dbl>               <dbl>
##  1 a4          1999         1                 999
##  2 a4          1999         1                 999
##  3 a4          2008         2                   8
##  4 a4          2008         2                   8
##  5 a4          1999         1                 999
##  6 a4          1999         1                 999
##  7 a4          2008         2                   8
##  8 a4 quattro  1999         1                 999
##  9 a4 quattro  1999         1                 999
## 10 a4 quattro  2008         2                   8
## # ℹ 224 more rows
…
2.4.4.3 Useful summary functions

Just using means, counts, and sum can get you a long way, but R provides many other useful summary functions:

Measures of location: we’ve used mean(x), but you can also use median(x)

It’s sometimes useful to combine aggregation with logical sub-setting

mpg %>% 
  group_by(model) %>% 
  summarise(avg_hwy = mean(hwy),
            avg_2L_hwy = mean(hwy[displ > 2])) #the mean highway mileage of only cars with an engine larger than 2 liters

## # A tibble: 38 × 3
##    model              avg_hwy avg_2L_hwy
##    <chr>                <dbl>      <dbl>
##  1 4runner 4wd           18.8       18.8
##  2 a4                    28.3       26.3
##  3 a4 quattro            25.8       25  
##  4 a6 quattro            24         24  
##  5 altima                28.7       28.7
##  6 c1500 suburban 2wd    17.8       17.8
##  7 camry                 28.3       28.3
##  8 camry solara          28.1       28.1
##  9 caravan 2wd           22.4       22.4
## 10 civic                 32.6      NaN  
## # ℹ 28 more rows

Measures of spread:

sd(x)- Standard deviation, the root mean squared deviation

IQR(x)- Interquartile range

mad(x)- Median absolute deviation

mpg %>% 
  group_by(model) %>% 
  summarise(hwy_sd = sd(hwy)) %>% 
  arrange(desc(hwy_sd))

## # A tibble: 38 × 2
##    model              hwy_sd
##    <chr>               <dbl>
##  1 new beetle           7.63
##  2 jetta                6.07
##  3 grand cherokee 4wd   3.25
##  4 corolla              2.65
##  5 civic                2.55
##  6 altima               2.42
##  7 gti                  2.30
##  8 dakota pickup 4wd    2.29
##  9 k1500 tahoe 4wd      2.22
## 10 camry solara         2.19
## # ℹ 28 more rows
…
To count the number of distinct (unique) values, use n_distinct(x)

mpg %>% 
  group_by(manufacturer, model) %>% 
  summarise(n_model_years = n_distinct(year)) %>% 
  arrange(desc(n_model_years))

## `summarise()` has regrouped the output.
## ℹ Summaries were computed grouped by manufacturer and model.
## ℹ Output is grouped by manufacturer.
## ℹ Use `summarise(.groups = "drop_last")` to silence this message.
## ℹ Use `summarise(.by = c(manufacturer, model))` for per-operation grouping (`?dplyr::dplyr_by`) instead.

## # A tibble: 38 × 3
## # Groups:   manufacturer [15]
##    manufacturer model              n_model_years
##    <chr>        <chr>                      <int>
##  1 audi         a4                             2
##  2 audi         a4 quattro                     2
##  3 audi         a6 quattro                     2
##  4 chevrolet    c1500 suburban 2wd             2
##  5 chevrolet    corvette                       2
##  6 chevrolet    k1500 tahoe 4wd                2
##  7 chevrolet    malibu                         2
##  8 dodge        caravan 2wd                    2
##  9 dodge        dakota pickup 4wd              2
## 10 dodge        durango 4wd                    2
## # ℹ 28 more rows
…
